pr-tsrs/prec.cfs.MW.1994050112.txt 0.1014
pr-tsrs/prec.cfs.MW.1994050612.txt 0.2649
pr-tsrs/prec.cfs.MW.1994051112.txt -0.0774
pr-tsrs/prec.cfs.MW.1994051612.txt 0.1437
pr-tsrs/prec.cfs.MW.1994052112.txt 0.4573
pr-tsrs/prec.cfs.MW.1994052612.txt 0.2086
pr-tsrs/prec.cfs.MW.1994053112.txt 0.4144
pr-tsrs/prec.cfs.MW.1994060512.txt 0.0774
pr-tsrs/prec.cfs.MW.1994061012.txt -0.0186
pr-tsrs/prec.cfs.MW.1994061512.txt -0.1020
pr-tsrs/prec.cfs.MW.1994062012.txt 0.5745
pr-tsrs/prec.cfs.MW.1994062512.txt 0.0826
pr-tsrs/prec.cfs.MW.1994063012.txt 0.5915
pr-tsrs/prec.cfs.MW.1994070512.txt 0.1614
pr-tsrs/prec.cfs.MW.1994071012.txt 0.4411
pr-tsrs/prec.cfs.MW.1994071512.txt 0.3109
pr-tsrs/prec.cfs.MW.1994072012.txt 0.0452
pr-tsrs/prec.cfs.MW.1994072512.txt 0.1869
pr-tsrs/prec.cfs.MW.1994073012.txt 0.1282
pr-tsrs/prec.cfs.MW.1994080412.txt -0.0050
pr-tsrs/prec.cfs.MW.1994080912.txt 0.2944
pr-tsrs/prec.cfs.MW.1994081412.txt 0.1324
pr-tsrs/prec.cfs.MW.1994081912.txt 0.1464
pr-tsrs/prec.cfs.MW.1994082412.txt -0.1049
pr-tsrs/prec.cfs.MW.1994082912.txt 0.2162
