pr-tsrs/prec.cfs.MW.1999050112.txt 0.6643
pr-tsrs/prec.cfs.MW.1999050612.txt 0.0490
pr-tsrs/prec.cfs.MW.1999051112.txt 0.3830
pr-tsrs/prec.cfs.MW.1999051612.txt 0.2713
pr-tsrs/prec.cfs.MW.1999052112.txt -0.0339
pr-tsrs/prec.cfs.MW.1999052612.txt 0.3087
pr-tsrs/prec.cfs.MW.1999053112.txt 0.1121
pr-tsrs/prec.cfs.MW.1999060512.txt -0.0320
pr-tsrs/prec.cfs.MW.1999061012.txt 0.1474
pr-tsrs/prec.cfs.MW.1999061512.txt 0.2033
pr-tsrs/prec.cfs.MW.1999062012.txt 0.1218
pr-tsrs/prec.cfs.MW.1999062512.txt 0.6618
pr-tsrs/prec.cfs.MW.1999063012.txt 0.5397
pr-tsrs/prec.cfs.MW.1999070512.txt 0.3581
pr-tsrs/prec.cfs.MW.1999071012.txt 0.2551
pr-tsrs/prec.cfs.MW.1999071512.txt 0.2576
pr-tsrs/prec.cfs.MW.1999072012.txt 0.2668
pr-tsrs/prec.cfs.MW.1999072512.txt 0.1206
pr-tsrs/prec.cfs.MW.1999073012.txt 0.5283
pr-tsrs/prec.cfs.MW.1999080412.txt 0.2943
pr-tsrs/prec.cfs.MW.1999080912.txt 0.2969
pr-tsrs/prec.cfs.MW.1999081412.txt 0.0244
pr-tsrs/prec.cfs.MW.1999081912.txt -0.1028
pr-tsrs/prec.cfs.MW.1999082412.txt -0.0190
pr-tsrs/prec.cfs.MW.1999082912.txt 0.1519
