1  -4.28638
2  -2.72943
3  -4.48038
4  -1.94773
5  2.66896
6  -1.57683
7  -1.96545
8  -4.73389
9  3.85545
10  -10.4098
11  -1.60332
12  5.07996
13  1.28663
14  6.51849
15  7.86163
16  -2.07518
17  4.14822
18  5.96156
19  4.66626
20  2.98067
21  2.29608
22  4.46064
23  3.27175
24  0.0180317
25  2.83314
26  -1.24704
27  0.806215
28  1.71621
29  0.3894
30  -0.148944
31  3.21449
32  -3.8859
33  0.719388
34  1.44623
35  -0.3967
36  -0.639891
37  -8.05802
38  -3.72016
39  6.49171
40  4.60526
41  2.58893
42  6.57638
43  1.85289
44  0.0153492
45  4.90235
46  -6.57944
47  -6.1478
48  5.29311
49  7.9533
50  0.822344
51  3.77284
52  1.56608
53  1.89686
54  2.43503
55  5.12857
56  5.30197
57  2.27862
58  2.0286
59  1.98008
60  1.98751
61  2.66382
62  -0.237341
63  -0.357632
64  0.919854
65  3.49008
66  3.23874
67  2.40621
68  1.73896
69  -1.16268
70  -0.466279
71  0.842453
72  0.887914
73  -0.630258
74  -3.06171
75  -2.69628
76  -1.36643
77  -3.55787
78  -3.73869
79  -1.77141
80  0.847793
81  1.75784
82  1.6963
83  2.28198
84  0.240552
85  0.485458
86  0.524622
87  0.976856
88  -0.978093
89  -1.61767
90  1.14369
91  2.6956
92  -0.114416
93  -0.763225
94  -0.393489
95  -1.77205
96  -3.70638
97  -5.87993
98  -6.86831
99  -5.30216
100  -1.9858
101  0.693833
102  0.451198
103  -1.80701
104  -3.1893
105  -3.58864
106  -5.21954
107  -4.9606
108  -2.14197
109  1.45192
110  1.74253
111  0.973152
112  -1.71924
113  -4.46563
114  -4.28964
115  -1.30977
116  -0.570851
117  0.405875
118  -2.28405
119  0.829518
120  -0.854073
121  -7.16532
122  -5.26753
123  -2.41626
124  -4.75405
